Sábra Lyman,domain.com.br
Alysa Henderson,domain.com.br
Luella Durfey,domain.com.br
Anthony Townson,domain.com.br
Britney Dorman,domain.com.br
Esperanza Philippi,domain.com.br
Ron Tefft,domain.com.br
Wesley Neisler,domain.com.br
Sharan Riggins,domain.com.br
Jadwiga Platts,domain.com.br
Lavette Matus,domain.com.br
Chantay Capasso,domain.com.br
Bettie Igoe,domain.com.br
Ivelisse Cho,domain.com.br
Tamisha Harrelson,domain.com.br
Gena Privett,domain.com.br
Charleen Alas,domain.com.br
Pa Schurr,domain.com.br
Sherice Bryson,domain.com.br
Evalyn Hendley,domain.com.br